A. Workload 2 TS Non Oversubscribed 200 with 6000MIPS-PE

VM_ID	TotVmTime	Total Debt
0	12842.15		0.32
VM_ID	TotVmTime	Total Debt
1	19179.78		0.48
VM_ID	TotVmTime	Total Debt
2	13988.52		0.35
VM_ID	TotVmTime	Total Debt
3	11920.52		0.3
VM_ID	TotVmTime	Total Debt
4	17228.21		0.43
VM_ID	TotVmTime	Total Debt
5	21130.54		0.53
VM_ID	TotVmTime	Total Debt
6	21629.74		0.54
VM_ID	TotVmTime	Total Debt
7	17589.13		0.44
VM_ID	TotVmTime	Total Debt
8	22972.3		0.57
VM_ID	TotVmTime	Total Debt
9	13573.72		0.34
VM_ID	TotVmTime	Total Debt
10	16852.14		0.42
VM_ID	TotVmTime	Total Debt
11	16803.21		0.42
VM_ID	TotVmTime	Total Debt
12	12242.24		0.31
VM_ID	TotVmTime	Total Debt
13	16597.51		0.41
VM_ID	TotVmTime	Total Debt
14	16114.14		0.4
VM_ID	TotVmTime	Total Debt
15	17911.05		0.45
VM_ID	TotVmTime	Total Debt
16	20945.6		0.52
VM_ID	TotVmTime	Total Debt
17	26733.43		0.67
VM_ID	TotVmTime	Total Debt
18	13229.59		0.33
VM_ID	TotVmTime	Total Debt
19	17186.31		0.43
VM_ID	TotVmTime	Total Debt
20	17140.93		0.43
VM_ID	TotVmTime	Total Debt
21	19599.27		0.49
VM_ID	TotVmTime	Total Debt
22	14627.32		0.37
VM_ID	TotVmTime	Total Debt
23	11690.6		0.29
VM_ID	TotVmTime	Total Debt
24	13752.37		0.34
VM_ID	TotVmTime	Total Debt
25	26261.23		0.66
VM_ID	TotVmTime	Total Debt
26	13478.68		0.34
VM_ID	TotVmTime	Total Debt
27	15832.95		0.4
VM_ID	TotVmTime	Total Debt
28	13641.86		0.34
VM_ID	TotVmTime	Total Debt
29	18939.46		0.47
VM_ID	TotVmTime	Total Debt
30	12490.66		0.31
VM_ID	TotVmTime	Total Debt
31	11504.89		0.29
VM_ID	TotVmTime	Total Debt
32	13814.5		0.35
VM_ID	TotVmTime	Total Debt
33	13644.66		0.34
VM_ID	TotVmTime	Total Debt
34	16678.51		0.42
VM_ID	TotVmTime	Total Debt
35	15632.2		0.39
VM_ID	TotVmTime	Total Debt
36	10297.56		0.26
VM_ID	TotVmTime	Total Debt
37	11439.21		0.29
VM_ID	TotVmTime	Total Debt
38	14162.85		0.35
VM_ID	TotVmTime	Total Debt
39	10015.84		0.25
VM_ID	TotVmTime	Total Debt
40	11838.42		0.3
VM_ID	TotVmTime	Total Debt
41	18367.76		0.46
VM_ID	TotVmTime	Total Debt
42	20226.52		0.51
VM_ID	TotVmTime	Total Debt
43	18721.78		0.47
VM_ID	TotVmTime	Total Debt
44	13501.2		0.34
VM_ID	TotVmTime	Total Debt
45	21392		0.53
VM_ID	TotVmTime	Total Debt
46	14719.75		0.37
VM_ID	TotVmTime	Total Debt
47	25648.08		0.64
VM_ID	TotVmTime	Total Debt
48	23073.37		0.58
VM_ID	TotVmTime	Total Debt
49	12610.5		0.32
VM_ID	TotVmTime	Total Debt
50	13327.35		0.33
VM_ID	TotVmTime	Total Debt
51	11089.04		0.28
VM_ID	TotVmTime	Total Debt
52	19711.04		0.49
VM_ID	TotVmTime	Total Debt
53	14917.43		0.37
VM_ID	TotVmTime	Total Debt
54	20575.55		0.51
VM_ID	TotVmTime	Total Debt
55	15628.85		0.39
VM_ID	TotVmTime	Total Debt
56	12570.15		0.31
VM_ID	TotVmTime	Total Debt
57	15461.36		0.39
VM_ID	TotVmTime	Total Debt
58	24954.16		0.62
VM_ID	TotVmTime	Total Debt
59	18132.49		0.45
VM_ID	TotVmTime	Total Debt
60	19665.84		0.49
VM_ID	TotVmTime	Total Debt
61	11776.73		0.29
VM_ID	TotVmTime	Total Debt
62	11389.88		0.28
VM_ID	TotVmTime	Total Debt
63	11238.05		0.28
VM_ID	TotVmTime	Total Debt
64	9822.81		0.25
VM_ID	TotVmTime	Total Debt
65	10036.15		0.25
VM_ID	TotVmTime	Total Debt
66	14702.25		0.37
VM_ID	TotVmTime	Total Debt
67	13784.36		0.34
VM_ID	TotVmTime	Total Debt
68	11209.6		0.28
VM_ID	TotVmTime	Total Debt
69	14974.23		0.37
VM_ID	TotVmTime	Total Debt
70	11586.49		0.29
VM_ID	TotVmTime	Total Debt
71	16534.72		0.41
VM_ID	TotVmTime	Total Debt
72	14103.51		0.35
VM_ID	TotVmTime	Total Debt
73	15927.68		0.4
VM_ID	TotVmTime	Total Debt
74	14672.15		0.37
VM_ID	TotVmTime	Total Debt
75	11018.61		0.28
VM_ID	TotVmTime	Total Debt
76	27570.61		0.69
VM_ID	TotVmTime	Total Debt
77	9154.81		0.23
VM_ID	TotVmTime	Total Debt
78	17229.55		0.43
VM_ID	TotVmTime	Total Debt
79	16596.7		0.41
VM_ID	TotVmTime	Total Debt
80	15212.3		0.38
VM_ID	TotVmTime	Total Debt
81	12898.16		0.32
VM_ID	TotVmTime	Total Debt
82	16009.02		0.4
VM_ID	TotVmTime	Total Debt
83	13358.15		0.33
VM_ID	TotVmTime	Total Debt
84	14795.85		0.37
VM_ID	TotVmTime	Total Debt
85	10659.75		0.27
VM_ID	TotVmTime	Total Debt
86	13503.68		0.34
VM_ID	TotVmTime	Total Debt
87	13517.48		0.34
VM_ID	TotVmTime	Total Debt
88	27220.23		0.68
VM_ID	TotVmTime	Total Debt
89	19016.56		0.48
VM_ID	TotVmTime	Total Debt
90	18391.38		0.46
VM_ID	TotVmTime	Total Debt
91	21475.25		0.54
VM_ID	TotVmTime	Total Debt
92	13938.51		0.35
VM_ID	TotVmTime	Total Debt
93	15579.12		0.39
VM_ID	TotVmTime	Total Debt
94	14031.44		0.35
VM_ID	TotVmTime	Total Debt
95	16735.15		0.42
VM_ID	TotVmTime	Total Debt
96	15489.06		0.39
VM_ID	TotVmTime	Total Debt
97	18443.77		0.46
VM_ID	TotVmTime	Total Debt
98	20345.11		0.51
VM_ID	TotVmTime	Total Debt
99	15731.6		0.39
VM_ID	TotVmTime	Total Debt
100	15552.23		0.39
VM_ID	TotVmTime	Total Debt
101	14236.53		0.36
VM_ID	TotVmTime	Total Debt
102	9294.79		0.23
VM_ID	TotVmTime	Total Debt
103	10706.85		0.27
VM_ID	TotVmTime	Total Debt
104	11356.29		0.28
VM_ID	TotVmTime	Total Debt
105	8902.07		0.22
VM_ID	TotVmTime	Total Debt
106	15487.7		0.39
VM_ID	TotVmTime	Total Debt
107	24053.77		0.6
VM_ID	TotVmTime	Total Debt
108	11388.69		0.28
VM_ID	TotVmTime	Total Debt
109	12842.44		0.32
VM_ID	TotVmTime	Total Debt
110	12106.14		0.3
VM_ID	TotVmTime	Total Debt
111	16087.43		0.4
VM_ID	TotVmTime	Total Debt
112	21141.33		0.53
VM_ID	TotVmTime	Total Debt
113	23293.62		0.58
VM_ID	TotVmTime	Total Debt
114	13973.34		0.35
VM_ID	TotVmTime	Total Debt
115	21849.8		0.55
VM_ID	TotVmTime	Total Debt
116	16246.4		0.41
VM_ID	TotVmTime	Total Debt
117	17965.68		0.45
VM_ID	TotVmTime	Total Debt
118	20235.16		0.51
VM_ID	TotVmTime	Total Debt
119	16471.26		0.41
VM_ID	TotVmTime	Total Debt
120	12693.81		0.32
VM_ID	TotVmTime	Total Debt
121	10025.18		0.25
VM_ID	TotVmTime	Total Debt
122	8062.57		0.2
VM_ID	TotVmTime	Total Debt
123	8665.02		0.22
VM_ID	TotVmTime	Total Debt
124	14099.2		0.35
VM_ID	TotVmTime	Total Debt
125	10945.25		0.27
VM_ID	TotVmTime	Total Debt
126	11120.89		0.28
VM_ID	TotVmTime	Total Debt
127	14985.35		0.37
VM_ID	TotVmTime	Total Debt
128	13082.71		0.33
VM_ID	TotVmTime	Total Debt
129	21801.86		0.55
VM_ID	TotVmTime	Total Debt
130	17681.19		0.44
VM_ID	TotVmTime	Total Debt
131	21843.85		0.55
VM_ID	TotVmTime	Total Debt
132	31459.75		0.79
VM_ID	TotVmTime	Total Debt
133	18913.61		0.47
VM_ID	TotVmTime	Total Debt
134	13802.03		0.35
VM_ID	TotVmTime	Total Debt
135	13268.58		0.33
VM_ID	TotVmTime	Total Debt
136	18790.52		0.47
VM_ID	TotVmTime	Total Debt
137	14245.71		0.36
VM_ID	TotVmTime	Total Debt
138	19120.5		0.48
VM_ID	TotVmTime	Total Debt
139	14781.25		0.37
VM_ID	TotVmTime	Total Debt
140	15035.66		0.38
VM_ID	TotVmTime	Total Debt
141	10418.03		0.26
VM_ID	TotVmTime	Total Debt
142	16931.62		0.42
VM_ID	TotVmTime	Total Debt
143	33454.97		0.84
VM_ID	TotVmTime	Total Debt
144	11918.13		0.3
VM_ID	TotVmTime	Total Debt
145	22092.07		0.55
VM_ID	TotVmTime	Total Debt
146	16243.17		0.41
VM_ID	TotVmTime	Total Debt
147	17527.04		0.44
VM_ID	TotVmTime	Total Debt
148	16075.52		0.4
VM_ID	TotVmTime	Total Debt
149	14419.38		0.36
VM_ID	TotVmTime	Total Debt
150	13543.24		0.34
VM_ID	TotVmTime	Total Debt
151	16339.55		0.41
VM_ID	TotVmTime	Total Debt
152	18569.65		0.46
VM_ID	TotVmTime	Total Debt
153	36854.41		0.92
VM_ID	TotVmTime	Total Debt
154	21599.12		0.54
VM_ID	TotVmTime	Total Debt
155	16120.64		0.4
VM_ID	TotVmTime	Total Debt
156	10374.7		0.26
VM_ID	TotVmTime	Total Debt
157	15239.19		0.38
VM_ID	TotVmTime	Total Debt
158	13059.06		0.33
VM_ID	TotVmTime	Total Debt
159	13291.02		0.33
VM_ID	TotVmTime	Total Debt
160	10446.48		0.26
VM_ID	TotVmTime	Total Debt
161	11207.04		0.28
VM_ID	TotVmTime	Total Debt
162	8075.35		0.2
VM_ID	TotVmTime	Total Debt
163	13810.94		0.35
VM_ID	TotVmTime	Total Debt
164	8380.46		0.21
VM_ID	TotVmTime	Total Debt
165	11103.22		0.28
VM_ID	TotVmTime	Total Debt
166	21799.79		0.54
VM_ID	TotVmTime	Total Debt
167	15802.29		0.4
VM_ID	TotVmTime	Total Debt
168	10208.3		0.26
VM_ID	TotVmTime	Total Debt
169	12183.34		0.3
VM_ID	TotVmTime	Total Debt
170	12858.06		0.32
VM_ID	TotVmTime	Total Debt
171	12577.13		0.31
VM_ID	TotVmTime	Total Debt
172	12276.11		0.31
VM_ID	TotVmTime	Total Debt
173	18754.94		0.47
VM_ID	TotVmTime	Total Debt
174	11533.88		0.29
VM_ID	TotVmTime	Total Debt
175	7782.88		0.19
VM_ID	TotVmTime	Total Debt
176	13283.7		0.33
VM_ID	TotVmTime	Total Debt
177	13857.06		0.35
VM_ID	TotVmTime	Total Debt
178	9826.56		0.25
VM_ID	TotVmTime	Total Debt
179	10092.43		0.25
VM_ID	TotVmTime	Total Debt
180	8371.4		0.21
VM_ID	TotVmTime	Total Debt
181	13242.06		0.33
VM_ID	TotVmTime	Total Debt
182	13158.3		0.33
VM_ID	TotVmTime	Total Debt
183	14581.83		0.36
VM_ID	TotVmTime	Total Debt
184	16244.96		0.41
VM_ID	TotVmTime	Total Debt
185	12288.7		0.31
VM_ID	TotVmTime	Total Debt
186	7349.35		0.18
VM_ID	TotVmTime	Total Debt
187	13677.56		0.34
VM_ID	TotVmTime	Total Debt
188	10576.31		0.26
VM_ID	TotVmTime	Total Debt
189	12867.06		0.32
VM_ID	TotVmTime	Total Debt
190	18227.37		0.46
VM_ID	TotVmTime	Total Debt
191	17047.65		0.43
VM_ID	TotVmTime	Total Debt
192	18124.84		0.45
VM_ID	TotVmTime	Total Debt
193	8436.47		0.21
VM_ID	TotVmTime	Total Debt
194	13440.35		0.34
VM_ID	TotVmTime	Total Debt
195	18370.25		0.46
VM_ID	TotVmTime	Total Debt
196	13007.19		0.33
VM_ID	TotVmTime	Total Debt
197	11148.3		0.28
VM_ID	TotVmTime	Total Debt
198	18209.41		0.46
VM_ID	TotVmTime	Total Debt
199	10143.8		0.25
Tot Debt		P Debt		NP Debt		P-Marked Debt		NP-Marked Debt
77.08			0		77.08		0			77.08
Tot Time		P Time		NP Time		P-Marked Time		NP-Marked Time
3083188.06		0		3083188.06		0			3083188.06
CloudSimExample finished!