Workload 2 TS-NP 250 with 6000MIPS-PE
Workload 2 = OSC-Clust-2000-3.1-cln.swf.gz

VM_ID	TotVmTime	Total Debt
0	12841.96		0.32
VM_ID	TotVmTime	Total Debt
1	19179.78		0.48
VM_ID	TotVmTime	Total Debt
2	13988.33		0.35
VM_ID	TotVmTime	Total Debt
3	11919.96		0.3
VM_ID	TotVmTime	Total Debt
4	17228.69		0.43
VM_ID	TotVmTime	Total Debt
5	21130.44		0.53
VM_ID	TotVmTime	Total Debt
6	21630.38		0.54
VM_ID	TotVmTime	Total Debt
7	17589.23		0.44
VM_ID	TotVmTime	Total Debt
8	22972.46		0.57
VM_ID	TotVmTime	Total Debt
9	13573.53		0.34
VM_ID	TotVmTime	Total Debt
10	16852.04		0.42
VM_ID	TotVmTime	Total Debt
11	16803.44		0.42
VM_ID	TotVmTime	Total Debt
12	12242.18		0.31
VM_ID	TotVmTime	Total Debt
13	16597.46		0.41
VM_ID	TotVmTime	Total Debt
14	16114.63		0.4
VM_ID	TotVmTime	Total Debt
15	17910.78		0.45
VM_ID	TotVmTime	Total Debt
16	20946.79		0.52
VM_ID	TotVmTime	Total Debt
17	26733.42		0.67
VM_ID	TotVmTime	Total Debt
18	13229.96		0.33
VM_ID	TotVmTime	Total Debt
19	17186.6		0.43
VM_ID	TotVmTime	Total Debt
20	17141.45		0.43
VM_ID	TotVmTime	Total Debt
21	19598.95		0.49
VM_ID	TotVmTime	Total Debt
22	14628.1		0.37
VM_ID	TotVmTime	Total Debt
23	11691.32		0.29
VM_ID	TotVmTime	Total Debt
24	13752.83		0.34
VM_ID	TotVmTime	Total Debt
25	26261.53		0.66
VM_ID	TotVmTime	Total Debt
26	13478.58		0.34
VM_ID	TotVmTime	Total Debt
27	15833.04		0.4
VM_ID	TotVmTime	Total Debt
28	13642.35		0.34
VM_ID	TotVmTime	Total Debt
29	18939.57		0.47
VM_ID	TotVmTime	Total Debt
30	12490.62		0.31
VM_ID	TotVmTime	Total Debt
31	11504.9		0.29
VM_ID	TotVmTime	Total Debt
32	13814.74		0.35
VM_ID	TotVmTime	Total Debt
33	13644.65		0.34
VM_ID	TotVmTime	Total Debt
34	16678.45		0.42
VM_ID	TotVmTime	Total Debt
35	15632.13		0.39
VM_ID	TotVmTime	Total Debt
36	10297.62		0.26
VM_ID	TotVmTime	Total Debt
37	11438.81		0.29
VM_ID	TotVmTime	Total Debt
38	14163.15		0.35
VM_ID	TotVmTime	Total Debt
39	10015.52		0.25
VM_ID	TotVmTime	Total Debt
40	11838.85		0.3
VM_ID	TotVmTime	Total Debt
41	18368.68		0.46
VM_ID	TotVmTime	Total Debt
42	20226.36		0.51
VM_ID	TotVmTime	Total Debt
43	18721.95		0.47
VM_ID	TotVmTime	Total Debt
44	13502.02		0.34
VM_ID	TotVmTime	Total Debt
45	21393.25		0.53
VM_ID	TotVmTime	Total Debt
46	14720.14		0.37
VM_ID	TotVmTime	Total Debt
47	25647.9		0.64
VM_ID	TotVmTime	Total Debt
48	23073.14		0.58
VM_ID	TotVmTime	Total Debt
49	12610.53		0.32
VM_ID	TotVmTime	Total Debt
50	13326.48		0.33
VM_ID	TotVmTime	Total Debt
51	11088.78		0.28
VM_ID	TotVmTime	Total Debt
52	19711.53		0.49
VM_ID	TotVmTime	Total Debt
53	14917.48		0.37
VM_ID	TotVmTime	Total Debt
54	20575.48		0.51
VM_ID	TotVmTime	Total Debt
55	15628.83		0.39
VM_ID	TotVmTime	Total Debt
56	12570.27		0.31
VM_ID	TotVmTime	Total Debt
57	15460.91		0.39
VM_ID	TotVmTime	Total Debt
58	24954.17		0.62
VM_ID	TotVmTime	Total Debt
59	18132.2		0.45
VM_ID	TotVmTime	Total Debt
60	19666.16		0.49
VM_ID	TotVmTime	Total Debt
61	11776.68		0.29
VM_ID	TotVmTime	Total Debt
62	11390.16		0.28
VM_ID	TotVmTime	Total Debt
63	11237.57		0.28
VM_ID	TotVmTime	Total Debt
64	9822.78		0.25
VM_ID	TotVmTime	Total Debt
65	10035.41		0.25
VM_ID	TotVmTime	Total Debt
66	14704.12		0.37
VM_ID	TotVmTime	Total Debt
67	13784.22		0.34
VM_ID	TotVmTime	Total Debt
68	11209.36		0.28
VM_ID	TotVmTime	Total Debt
69	14974.14		0.37
VM_ID	TotVmTime	Total Debt
70	11586.37		0.29
VM_ID	TotVmTime	Total Debt
71	16535.06		0.41
VM_ID	TotVmTime	Total Debt
72	14103.06		0.35
VM_ID	TotVmTime	Total Debt
73	15927.86		0.4
VM_ID	TotVmTime	Total Debt
74	14672.58		0.37
VM_ID	TotVmTime	Total Debt
75	11019.07		0.28
VM_ID	TotVmTime	Total Debt
76	27570.6		0.69
VM_ID	TotVmTime	Total Debt
77	9154.6		0.23
VM_ID	TotVmTime	Total Debt
78	17229.44		0.43
VM_ID	TotVmTime	Total Debt
79	16596.85		0.41
VM_ID	TotVmTime	Total Debt
80	15212.43		0.38
VM_ID	TotVmTime	Total Debt
81	12898.42		0.32
VM_ID	TotVmTime	Total Debt
82	16009.15		0.4
VM_ID	TotVmTime	Total Debt
83	13357.84		0.33
VM_ID	TotVmTime	Total Debt
84	14795.74		0.37
VM_ID	TotVmTime	Total Debt
85	10660.2		0.27
VM_ID	TotVmTime	Total Debt
86	13503.31		0.34
VM_ID	TotVmTime	Total Debt
87	13517.12		0.34
VM_ID	TotVmTime	Total Debt
88	27220.34		0.68
VM_ID	TotVmTime	Total Debt
89	19016.74		0.48
VM_ID	TotVmTime	Total Debt
90	18391.91		0.46
VM_ID	TotVmTime	Total Debt
91	21475.18		0.54
VM_ID	TotVmTime	Total Debt
92	13938.22		0.35
VM_ID	TotVmTime	Total Debt
93	15579.08		0.39
VM_ID	TotVmTime	Total Debt
94	14031.73		0.35
VM_ID	TotVmTime	Total Debt
95	16735.28		0.42
VM_ID	TotVmTime	Total Debt
96	15488.97		0.39
VM_ID	TotVmTime	Total Debt
97	18445.85		0.46
VM_ID	TotVmTime	Total Debt
98	20345.01		0.51
VM_ID	TotVmTime	Total Debt
99	15731.74		0.39
VM_ID	TotVmTime	Total Debt
100	15551.77		0.39
VM_ID	TotVmTime	Total Debt
101	14236.86		0.36
VM_ID	TotVmTime	Total Debt
102	9294.9		0.23
VM_ID	TotVmTime	Total Debt
103	10706.94		0.27
VM_ID	TotVmTime	Total Debt
104	11356.47		0.28
VM_ID	TotVmTime	Total Debt
105	8901.96		0.22
VM_ID	TotVmTime	Total Debt
106	15487.55		0.39
VM_ID	TotVmTime	Total Debt
107	24053.5		0.6
VM_ID	TotVmTime	Total Debt
108	11388.89		0.28
VM_ID	TotVmTime	Total Debt
109	12843.48		0.32
VM_ID	TotVmTime	Total Debt
110	12106.75		0.3
VM_ID	TotVmTime	Total Debt
111	16087.26		0.4
VM_ID	TotVmTime	Total Debt
112	21141.69		0.53
VM_ID	TotVmTime	Total Debt
113	23293.58		0.58
VM_ID	TotVmTime	Total Debt
114	13973.38		0.35
VM_ID	TotVmTime	Total Debt
115	21849.79		0.55
VM_ID	TotVmTime	Total Debt
116	16246.63		0.41
VM_ID	TotVmTime	Total Debt
117	17965.63		0.45
VM_ID	TotVmTime	Total Debt
118	20234.94		0.51
VM_ID	TotVmTime	Total Debt
119	16471.53		0.41
VM_ID	TotVmTime	Total Debt
120	12693.41		0.32
VM_ID	TotVmTime	Total Debt
121	10025.58		0.25
VM_ID	TotVmTime	Total Debt
122	8062.42		0.2
VM_ID	TotVmTime	Total Debt
123	8665.21		0.22
VM_ID	TotVmTime	Total Debt
124	14098.95		0.35
VM_ID	TotVmTime	Total Debt
125	10945.35		0.27
VM_ID	TotVmTime	Total Debt
126	11120.47		0.28
VM_ID	TotVmTime	Total Debt
127	14985.99		0.37
VM_ID	TotVmTime	Total Debt
128	13082.81		0.33
VM_ID	TotVmTime	Total Debt
129	21801.79		0.55
VM_ID	TotVmTime	Total Debt
130	17681.25		0.44
VM_ID	TotVmTime	Total Debt
131	21843.84		0.55
VM_ID	TotVmTime	Total Debt
132	31459.59		0.79
VM_ID	TotVmTime	Total Debt
133	18914.21		0.47
VM_ID	TotVmTime	Total Debt
134	13801.82		0.35
VM_ID	TotVmTime	Total Debt
135	13267.95		0.33
VM_ID	TotVmTime	Total Debt
136	18790.65		0.47
VM_ID	TotVmTime	Total Debt
137	14245.99		0.36
VM_ID	TotVmTime	Total Debt
138	19119.82		0.48
VM_ID	TotVmTime	Total Debt
139	14781.33		0.37
VM_ID	TotVmTime	Total Debt
140	15035.7		0.38
VM_ID	TotVmTime	Total Debt
141	10418.09		0.26
VM_ID	TotVmTime	Total Debt
142	16931.55		0.42
VM_ID	TotVmTime	Total Debt
143	33454.95		0.84
VM_ID	TotVmTime	Total Debt
144	11918.79		0.3
VM_ID	TotVmTime	Total Debt
145	22091.77		0.55
VM_ID	TotVmTime	Total Debt
146	16243.5		0.41
VM_ID	TotVmTime	Total Debt
147	17527.16		0.44
VM_ID	TotVmTime	Total Debt
148	16075.47		0.4
VM_ID	TotVmTime	Total Debt
149	14419.52		0.36
VM_ID	TotVmTime	Total Debt
150	13542.62		0.34
VM_ID	TotVmTime	Total Debt
151	16339.35		0.41
VM_ID	TotVmTime	Total Debt
152	18569.61		0.46
VM_ID	TotVmTime	Total Debt
153	36854.66		0.92
VM_ID	TotVmTime	Total Debt
154	21599.36		0.54
VM_ID	TotVmTime	Total Debt
155	16120.12		0.4
VM_ID	TotVmTime	Total Debt
156	10374.39		0.26
VM_ID	TotVmTime	Total Debt
157	15239.12		0.38
VM_ID	TotVmTime	Total Debt
158	13058.86		0.33
VM_ID	TotVmTime	Total Debt
159	13290.92		0.33
VM_ID	TotVmTime	Total Debt
160	10446.57		0.26
VM_ID	TotVmTime	Total Debt
161	11206.9		0.28
VM_ID	TotVmTime	Total Debt
162	8075.64		0.2
VM_ID	TotVmTime	Total Debt
163	13810.79		0.35
VM_ID	TotVmTime	Total Debt
164	8380.49		0.21
VM_ID	TotVmTime	Total Debt
165	11103.44		0.28
VM_ID	TotVmTime	Total Debt
166	21799.36		0.54
VM_ID	TotVmTime	Total Debt
167	15802.4		0.4
VM_ID	TotVmTime	Total Debt
168	10208.54		0.26
VM_ID	TotVmTime	Total Debt
169	12183.2		0.3
VM_ID	TotVmTime	Total Debt
170	12858.2		0.32
VM_ID	TotVmTime	Total Debt
171	12577.07		0.31
VM_ID	TotVmTime	Total Debt
172	12277.53		0.31
VM_ID	TotVmTime	Total Debt
173	18754.6		0.47
VM_ID	TotVmTime	Total Debt
174	11533.76		0.29
VM_ID	TotVmTime	Total Debt
175	7783.02		0.19
VM_ID	TotVmTime	Total Debt
176	13284.35		0.33
VM_ID	TotVmTime	Total Debt
177	13857.15		0.35
VM_ID	TotVmTime	Total Debt
178	9827.37		0.25
VM_ID	TotVmTime	Total Debt
179	10092.65		0.25
VM_ID	TotVmTime	Total Debt
180	8371.29		0.21
VM_ID	TotVmTime	Total Debt
181	13242.33		0.33
VM_ID	TotVmTime	Total Debt
182	13158.12		0.33
VM_ID	TotVmTime	Total Debt
183	14581.63		0.36
VM_ID	TotVmTime	Total Debt
184	16244.53		0.41
VM_ID	TotVmTime	Total Debt
185	12287.97		0.31
VM_ID	TotVmTime	Total Debt
186	7349.49		0.18
VM_ID	TotVmTime	Total Debt
187	13677.05		0.34
VM_ID	TotVmTime	Total Debt
188	10576		0.26
VM_ID	TotVmTime	Total Debt
189	12867.12		0.32
VM_ID	TotVmTime	Total Debt
190	18227.55		0.46
VM_ID	TotVmTime	Total Debt
191	17047.26		0.43
VM_ID	TotVmTime	Total Debt
192	18123.55		0.45
VM_ID	TotVmTime	Total Debt
193	8436.54		0.21
VM_ID	TotVmTime	Total Debt
194	13440.38		0.34
VM_ID	TotVmTime	Total Debt
195	18370.64		0.46
VM_ID	TotVmTime	Total Debt
196	13007.41		0.33
VM_ID	TotVmTime	Total Debt
197	11148.31		0.28
VM_ID	TotVmTime	Total Debt
198	18209.8		0.46
VM_ID	TotVmTime	Total Debt
199	10143.54		0.25
VM_ID	TotVmTime	Total Debt
200	0		0
VM_ID	TotVmTime	Total Debt
201	0		0
VM_ID	TotVmTime	Total Debt
202	0		0
VM_ID	TotVmTime	Total Debt
203	0		0
VM_ID	TotVmTime	Total Debt
204	0		0
VM_ID	TotVmTime	Total Debt
205	0		0
VM_ID	TotVmTime	Total Debt
206	0		0
VM_ID	TotVmTime	Total Debt
207	0		0
VM_ID	TotVmTime	Total Debt
208	0		0
VM_ID	TotVmTime	Total Debt
209	0		0
VM_ID	TotVmTime	Total Debt
210	0		0
VM_ID	TotVmTime	Total Debt
211	0		0
VM_ID	TotVmTime	Total Debt
212	0		0
VM_ID	TotVmTime	Total Debt
213	0		0
VM_ID	TotVmTime	Total Debt
214	0		0
VM_ID	TotVmTime	Total Debt
215	0		0
VM_ID	TotVmTime	Total Debt
216	0		0
VM_ID	TotVmTime	Total Debt
217	0		0
VM_ID	TotVmTime	Total Debt
218	0		0
VM_ID	TotVmTime	Total Debt
219	0		0
VM_ID	TotVmTime	Total Debt
220	0		0
VM_ID	TotVmTime	Total Debt
221	0		0
VM_ID	TotVmTime	Total Debt
222	0		0
VM_ID	TotVmTime	Total Debt
223	0		0
VM_ID	TotVmTime	Total Debt
224	0		0
VM_ID	TotVmTime	Total Debt
225	0		0
VM_ID	TotVmTime	Total Debt
226	0		0
VM_ID	TotVmTime	Total Debt
227	0		0
VM_ID	TotVmTime	Total Debt
228	0		0
VM_ID	TotVmTime	Total Debt
229	0		0
VM_ID	TotVmTime	Total Debt
230	0		0
VM_ID	TotVmTime	Total Debt
231	0		0
VM_ID	TotVmTime	Total Debt
232	0		0
VM_ID	TotVmTime	Total Debt
233	0		0
VM_ID	TotVmTime	Total Debt
234	0		0
VM_ID	TotVmTime	Total Debt
235	0		0
VM_ID	TotVmTime	Total Debt
236	0		0
VM_ID	TotVmTime	Total Debt
237	0		0
VM_ID	TotVmTime	Total Debt
238	0		0
VM_ID	TotVmTime	Total Debt
239	0		0
VM_ID	TotVmTime	Total Debt
240	0		0
VM_ID	TotVmTime	Total Debt
241	0		0
VM_ID	TotVmTime	Total Debt
242	0		0
VM_ID	TotVmTime	Total Debt
243	0		0
VM_ID	TotVmTime	Total Debt
244	0		0
VM_ID	TotVmTime	Total Debt
245	0		0
VM_ID	TotVmTime	Total Debt
246	0		0
VM_ID	TotVmTime	Total Debt
247	0		0
VM_ID	TotVmTime	Total Debt
248	0		0
VM_ID	TotVmTime	Total Debt
249	0		0

Tot Debt		P Debt		NP Debt		P-Marked Debt		NP-Marked Debt
77.08			0			77.08		0					77.08
Tot Time		P Time		NP Time		P-Marked Time		NP-Marked Time
3083200.73		0			3083200.73	0					3083200.73
CloudSimExample finished!