Simulation Files/NASA-iPSC-1993-3.1-cln.swf.gz|NASA-iPSC-1993-3.1-cln-5000(500 priority)|TSO-10%|5000|500|1|5000|1|1
Simulation Files/NASA-iPSC-1993-3.1-cln.swf.gz|NASA-iPSC-1993-3.1-cln-5000(1000 priority)|TSO-20%|5000|1000|1|5000|1|1
Simulation Files/NASA-iPSC-1993-3.1-cln.swf.gz|NASA-iPSC-1993-3.1-cln-5000(2000 priority)|TSO-40%|5000|2000|1|5000|1|1
Simulation Files/NASA-iPSC-1993-3.1-cln.swf.gz|NASA-iPSC-1993-3.1-cln-5000(0 marked)|TSO-NP|5000|0|0|6000|1|1
Simulation Files/NASA-iPSC-1993-3.1-cln.swf.gz|NASA-iPSC-1993-3.1-cln-5000(0 marked)|TS|5000|0|0|6000|1|0
Simulation Files/NASA-iPSC-1993-3.1-cln.swf.gz|NASA-iPSC-1993-3.1-cln-5000(500 priority)|TSO-10%|5000|500|1|6000|2|2
Simulation Files/NASA-iPSC-1993-3.1-cln.swf.gz|NASA-iPSC-1993-3.1-cln-5000(1000 priority)|TSO-20%|5000|1000|1|6000|2|2
Simulation Files/NASA-iPSC-1993-3.1-cln.swf.gz|NASA-iPSC-1993-3.1-cln-5000(2000 priority)|TSO-40%|5000|2000|1|6000|2|2
Simulation Files/NASA-iPSC-1993-3.1-cln.swf.gz|NASA-iPSC-1993-3.1-cln-5000(0 marked)|TSO-NP|5000|0|0|6000|2|2
Simulation Files/NASA-iPSC-1993-3.1-cln.swf.gz|NASA-iPSC-1993-3.1-cln-5000(0 marked)|TS|5000|0|0|6000|2|0
Simulation Files/OSC-Clust-2000-3.1-cln.swf.gz|OSC-Clust-2000-3.1-cln-5000(500 priority)|TSO-10%|5000|500|1|5000|1|1
Simulation Files/OSC-Clust-2000-3.1-cln.swf.gz|OSC-Clust-2000-3.1-cln-5000(1000 priority)|TSO-20%|5000|1000|1|5000|1|1
Simulation Files/OSC-Clust-2000-3.1-cln.swf.gz|OSC-Clust-2000-3.1-cln-5000(2000 priority)|TSO-40%|5000|2000|1|5000|1|1
Simulation Files/OSC-Clust-2000-3.1-cln.swf.gz|OSC-Clust-2000-3.1-cln-5000(0 marked)|TSO-NP|5000|0|0|6000|1|1
Simulation Files/OSC-Clust-2000-3.1-cln.swf.gz|OSC-Clust-2000-3.1-cln-5000(0 marked)|TS|5000|0|0|6000|1|0
Simulation Files/OSC-Clust-2000-3.1-cln.swf.gz|OSC-Clust-2000-3.1-cln-5000(500 priority)|TSO-10%|5000|500|1|6000|2|2
Simulation Files/OSC-Clust-2000-3.1-cln.swf.gz|OSC-Clust-2000-3.1-cln-5000(1000 priority)|TSO-20%|5000|1000|1|6000|2|2
Simulation Files/OSC-Clust-2000-3.1-cln.swf.gz|OSC-Clust-2000-3.1-cln-5000(2000 priority)|TSO-40%|5000|2000|1|6000|2|2
Simulation Files/OSC-Clust-2000-3.1-cln.swf.gz|OSC-Clust-2000-3.1-cln-5000(0 marked)|TSO-NP|5000|0|0|6000|2|2
Simulation Files/OSC-Clust-2000-3.1-cln.swf.gz|OSC-Clust-2000-3.1-cln-5000(0 marked)|TS|5000|0|0|6000|2|0