Simulation Files/NASA-iPSC-1993-3.1-cln.swf.gz|NASA-iPSC-1993-3.1-cln-250(25 priority)|250|25|1
Simulation Files/NASA-iPSC-1993-3.1-cln.swf.gz|NASA-iPSC-1993-3.1-cln-250(50 priority)|250|50|1
Simulation Files/NASA-iPSC-1993-3.1-cln.swf.gz|NASA-iPSC-1993-3.1-cln-250(100 priority)|250|100|1
Simulation Files/NASA-iPSC-1993-3.1-cln.swf.gz|NASA-iPSC-1993-3.1-cln-250(25 marked)|250|25|0
Simulation Files/NASA-iPSC-1993-3.1-cln.swf.gz|NASA-iPSC-1993-3.1-cln-250(50 marked)|250|50|0
Simulation Files/NASA-iPSC-1993-3.1-cln.swf.gz|NASA-iPSC-1993-3.1-cln-250(100 marked)|250|100|0
Simulation Files/NASA-iPSC-1993-3.1-cln.swf.gz|NASA-iPSC-1993-3.1-cln-200(20 priority)|200|20|1
Simulation Files/NASA-iPSC-1993-3.1-cln.swf.gz|NASA-iPSC-1993-3.1-cln-200(40 priority)|200|40|1
Simulation Files/NASA-iPSC-1993-3.1-cln.swf.gz|NASA-iPSC-1993-3.1-cln-200(80 priority)|200|80|1
Simulation Files/NASA-iPSC-1993-3.1-cln.swf.gz|NASA-iPSC-1993-3.1-cln-200(20 marked)|200|20|0
Simulation Files/NASA-iPSC-1993-3.1-cln.swf.gz|NASA-iPSC-1993-3.1-cln-200(40 marked)|200|40|0
Simulation Files/NASA-iPSC-1993-3.1-cln.swf.gz|NASA-iPSC-1993-3.1-cln-200(80 marked)|200|80|0
Simulation Files/NASA-iPSC-1993-3.1-cln.swf.gz|NASA-iPSC-1993-3.1-cln-300(30 priority)|300|30|1
Simulation Files/NASA-iPSC-1993-3.1-cln.swf.gz|NASA-iPSC-1993-3.1-cln-300(60 priority)|300|60|1
Simulation Files/NASA-iPSC-1993-3.1-cln.swf.gz|NASA-iPSC-1993-3.1-cln-300(120 priority)|300|120|1
Simulation Files/NASA-iPSC-1993-3.1-cln.swf.gz|NASA-iPSC-1993-3.1-cln-300(30 marked)|300|30|0
Simulation Files/NASA-iPSC-1993-3.1-cln.swf.gz|NASA-iPSC-1993-3.1-cln-300(60 marked)|300|60|0
Simulation Files/NASA-iPSC-1993-3.1-cln.swf.gz|NASA-iPSC-1993-3.1-cln-300(120 marked)|300|120|0