Simulation Files/LLNL-Atlas-2006-2.1-cln.swf.gz|LLNL-Atlas-2006-2.1-cln-200(20 priority)|TSO-10%|200|20|1|6000|2|2
Simulation Files/LLNL-Atlas-2006-2.1-cln.swf.gz|LLNL-Atlas-2006-2.1-cln-200(40 priority)|TSO-20%|200|40|1|6000|2|2
Simulation Files/LLNL-Atlas-2006-2.1-cln.swf.gz|LLNL-Atlas-2006-2.1-cln-200(80 priority)|TSO-40%|200|80|1|6000|2|2
Simulation Files/LLNL-Atlas-2006-2.1-cln.swf.gz|LLNL-Atlas-2006-2.1-cln-200(0 marked)|TSO-NP|200|0|0|6000|2|2
Simulation Files/LLNL-Atlas-2006-2.1-cln.swf.gz|LLNL-Atlas-2006-2.1-cln-250(25 priority)|TSO-10%|250|25|1|6000|2|2
Simulation Files/LLNL-Atlas-2006-2.1-cln.swf.gz|LLNL-Atlas-2006-2.1-cln-250(50 priority)|TSO-20%|250|50|1|6000|2|2
Simulation Files/LLNL-Atlas-2006-2.1-cln.swf.gz|LLNL-Atlas-2006-2.1-cln-250(100 priority)|TSO-40%|250|100|1|6000|2|2
Simulation Files/LLNL-Atlas-2006-2.1-cln.swf.gz|LLNL-Atlas-2006-2.1-cln-250(0 marked)|TSO-NP|250|0|0|6000|2|2
Simulation Files/LLNL-Atlas-2006-2.1-cln.swf.gz|LLNL-Atlas-2006-2.1-cln-300(30 priority)|TSO-10%|300|30|1|6000|2|2
Simulation Files/LLNL-Atlas-2006-2.1-cln.swf.gz|LLNL-Atlas-2006-2.1-cln-300(60 priority)|TSO-20%|300|60|1|6000|2|2
Simulation Files/LLNL-Atlas-2006-2.1-cln.swf.gz|LLNL-Atlas-2006-2.1-cln-300(120 priority)|TSO-40%|300|120|1|6000|2|2
Simulation Files/LLNL-Atlas-2006-2.1-cln.swf.gz|LLNL-Atlas-2006-2.1-cln-300(0 marked)|TSO-NP|300|0|0|6000|2|2
Simulation Files/NASA-iPSC-1993-3.1-cln.swf.gz|NASA-iPSC-1993-3.1-cln-200(20 priority)|TSO-10%|200|20|1|6000|2|2
Simulation Files/NASA-iPSC-1993-3.1-cln.swf.gz|NASA-iPSC-1993-3.1-cln-200(40 priority)|TSO-20%|200|40|1|6000|2|2
Simulation Files/NASA-iPSC-1993-3.1-cln.swf.gz|NASA-iPSC-1993-3.1-cln-200(80 priority)|TSO-40%|200|80|1|6000|2|2
Simulation Files/NASA-iPSC-1993-3.1-cln.swf.gz|NASA-iPSC-1993-3.1-cln-200(0 marked)|TSO-NP|200|0|0|6000|2|2
Simulation Files/NASA-iPSC-1993-3.1-cln.swf.gz|NASA-iPSC-1993-3.1-cln-250(25 priority)|TSO-10%|250|25|1|6000|2|2
Simulation Files/NASA-iPSC-1993-3.1-cln.swf.gz|NASA-iPSC-1993-3.1-cln-250(50 priority)|TSO-20%|250|50|1|6000|2|2
Simulation Files/NASA-iPSC-1993-3.1-cln.swf.gz|NASA-iPSC-1993-3.1-cln-250(100 priority)|TSO-40%|250|100|1|6000|2|2
Simulation Files/NASA-iPSC-1993-3.1-cln.swf.gz|NASA-iPSC-1993-3.1-cln-250(0 marked)|TSO-NP|250|0|0|6000|2|2
Simulation Files/NASA-iPSC-1993-3.1-cln.swf.gz|NASA-iPSC-1993-3.1-cln-300(30 priority)|TSO-10%|300|30|1|6000|2|2
Simulation Files/NASA-iPSC-1993-3.1-cln.swf.gz|NASA-iPSC-1993-3.1-cln-300(60 priority)|TSO-20%|300|60|1|6000|2|2
Simulation Files/NASA-iPSC-1993-3.1-cln.swf.gz|NASA-iPSC-1993-3.1-cln-300(120 priority)|TSO-40%|300|120|1|6000|2|2
Simulation Files/NASA-iPSC-1993-3.1-cln.swf.gz|NASA-iPSC-1993-3.1-cln-300(0 marked)|TSO-NP|300|0|0|6000|2|2
Simulation Files/OSC-Clust-2000-3.1-cln.swf.gz|OSC-Clust-2000-3.1-cln-200(20 priority)|TSO-10%|200|20|1|6000|2|2
Simulation Files/OSC-Clust-2000-3.1-cln.swf.gz|OSC-Clust-2000-3.1-cln-200(40 priority)|TSO-20%|200|40|1|6000|2|2
Simulation Files/OSC-Clust-2000-3.1-cln.swf.gz|OSC-Clust-2000-3.1-cln-200(80 priority)|TSO-40%|200|80|1|6000|2|2
Simulation Files/OSC-Clust-2000-3.1-cln.swf.gz|OSC-Clust-2000-3.1-cln-200(0 marked)|TSO-NP|200|0|0|6000|2|2
Simulation Files/OSC-Clust-2000-3.1-cln.swf.gz|OSC-Clust-2000-3.1-cln-250(25 priority)|TSO-10%|250|25|1|6000|2|2
Simulation Files/OSC-Clust-2000-3.1-cln.swf.gz|OSC-Clust-2000-3.1-cln-250(50 priority)|TSO-20%|250|50|1|6000|2|2
Simulation Files/OSC-Clust-2000-3.1-cln.swf.gz|OSC-Clust-2000-3.1-cln-250(100 priority)|TSO-40%|250|100|1|6000|2|2
Simulation Files/OSC-Clust-2000-3.1-cln.swf.gz|OSC-Clust-2000-3.1-cln-250(0 marked)|TSO-NP|250|0|0|6000|2|2
Simulation Files/OSC-Clust-2000-3.1-cln.swf.gz|OSC-Clust-2000-3.1-cln-300(30 priority)|TSO-10%|300|30|1|6000|2|2
Simulation Files/OSC-Clust-2000-3.1-cln.swf.gz|OSC-Clust-2000-3.1-cln-300(60 priority)|TSO-20%|300|60|1|6000|2|2
Simulation Files/OSC-Clust-2000-3.1-cln.swf.gz|OSC-Clust-2000-3.1-cln-300(120 priority)|TSO-40%|300|120|1|6000|2|2
Simulation Files/OSC-Clust-2000-3.1-cln.swf.gz|OSC-Clust-2000-3.1-cln-300(0 marked)|TSO-NP|300|0|0|6000|2|2