Simulation Files/OSC-Clust-2000-3.1-cln.swf.gz|OSC-Clust-2000-3.1-cln-1000(100 priority)|TSO-10%|1000|100|1|6000|2|2
Simulation Files/OSC-Clust-2000-3.1-cln.swf.gz|OSC-Clust-2000-3.1-cln-1000(200 priority)|TSO-20%|1000|200|1|6000|2|2
Simulation Files/OSC-Clust-2000-3.1-cln.swf.gz|OSC-Clust-2000-3.1-cln-1000(400 priority)|TSO-40%|1000|400|1|6000|2|2
Simulation Files/OSC-Clust-2000-3.1-cln.swf.gz|OSC-Clust-2000-3.1-cln-1000(0 marked)|TSO-NP|1000|0|0|6000|2|2
Simulation Files/OSC-Clust-2000-3.1-cln.swf.gz|OSC-Clust-2000-3.1-cln-2000(200 priority)|TSO-10%|2000|200|1|6000|2|2
Simulation Files/OSC-Clust-2000-3.1-cln.swf.gz|OSC-Clust-2000-3.1-cln-2000(400 priority)|TSO-20%|2000|400|1|6000|2|2
Simulation Files/OSC-Clust-2000-3.1-cln.swf.gz|OSC-Clust-2000-3.1-cln-2000(800 priority)|TSO-40%|2000|800|1|6000|2|2
Simulation Files/OSC-Clust-2000-3.1-cln.swf.gz|OSC-Clust-2000-3.1-cln-2000(0 marked)|TSO-NP|2000|0|0|6000|2|2
Simulation Files/OSC-Clust-2000-3.1-cln.swf.gz|OSC-Clust-2000-3.1-cln-3000(300 priority)|TSO-10%|3000|300|1|6000|2|2
Simulation Files/OSC-Clust-2000-3.1-cln.swf.gz|OSC-Clust-2000-3.1-cln-3000(600 priority)|TSO-20%|3000|600|1|6000|2|2
Simulation Files/OSC-Clust-2000-3.1-cln.swf.gz|OSC-Clust-2000-3.1-cln-3000(1200 priority)|TSO-40%|3000|1200|1|6000|2|2
Simulation Files/OSC-Clust-2000-3.1-cln.swf.gz|OSC-Clust-2000-3.1-cln-3000(0 marked)|TSO-NP|3000|0|0|6000|2|2
Simulation Files/OSC-Clust-2000-3.1-cln.swf.gz|OSC-Clust-2000-3.1-cln-4000(400 priority)|TSO-10%|4000|400|1|6000|2|2
Simulation Files/OSC-Clust-2000-3.1-cln.swf.gz|OSC-Clust-2000-3.1-cln-4000(800 priority)|TSO-20%|4000|800|1|6000|2|2
Simulation Files/OSC-Clust-2000-3.1-cln.swf.gz|OSC-Clust-2000-3.1-cln-4000(1600 priority)|TSO-40%|4000|1600|1|6000|2|2
Simulation Files/OSC-Clust-2000-3.1-cln.swf.gz|OSC-Clust-2000-3.1-cln-4000(0 marked)|TSO-NP|4000|0|0|6000|2|2
Simulation Files/OSC-Clust-2000-3.1-cln.swf.gz|OSC-Clust-2000-3.1-cln-5000(500 priority)|TSO-10%|5000|500|1|6000|2|2
Simulation Files/OSC-Clust-2000-3.1-cln.swf.gz|OSC-Clust-2000-3.1-cln-5000(1000 priority)|TSO-20%|5000|1000|1|6000|2|2
Simulation Files/OSC-Clust-2000-3.1-cln.swf.gz|OSC-Clust-2000-3.1-cln-5000(2000 priority)|TSO-40%|5000|2000|1|6000|2|2
Simulation Files/OSC-Clust-2000-3.1-cln.swf.gz|OSC-Clust-2000-3.1-cln-5000(0 marked)|TSO-NP|5000|0|0|6000|2|2