C. Workload 3 TS-NP 300 with 6000MIPS-PE

VM_ID	TotVmTime	Total Debt
0	1149603.19		28.74
VM_ID	TotVmTime	Total Debt
1	1018089.15		25.45
VM_ID	TotVmTime	Total Debt
2	1221318.01		30.53
VM_ID	TotVmTime	Total Debt
3	2456443.46		61.41
VM_ID	TotVmTime	Total Debt
4	907214.8		22.68
VM_ID	TotVmTime	Total Debt
5	1174164.55		29.35
VM_ID	TotVmTime	Total Debt
6	444686.23		11.12
VM_ID	TotVmTime	Total Debt
7	715745.51		17.89
VM_ID	TotVmTime	Total Debt
8	1817326.18		45.43
VM_ID	TotVmTime	Total Debt
9	793782.79		19.84
VM_ID	TotVmTime	Total Debt
10	1051027.21		26.28
VM_ID	TotVmTime	Total Debt
11	1087219.7		27.18
VM_ID	TotVmTime	Total Debt
12	858720.5		21.47
VM_ID	TotVmTime	Total Debt
13	1611409.23		40.29
VM_ID	TotVmTime	Total Debt
14	1164897.05		29.12
VM_ID	TotVmTime	Total Debt
15	1367718.5		34.19
VM_ID	TotVmTime	Total Debt
16	1242012.56		31.05
VM_ID	TotVmTime	Total Debt
17	1145596.25		28.64
VM_ID	TotVmTime	Total Debt
18	1615331.85		40.38
VM_ID	TotVmTime	Total Debt
19	1215731.42		30.39
VM_ID	TotVmTime	Total Debt
20	1160065.2		29
VM_ID	TotVmTime	Total Debt
21	981975.09		24.55
VM_ID	TotVmTime	Total Debt
22	1101819.77		27.55
VM_ID	TotVmTime	Total Debt
23	889796.47		22.24
VM_ID	TotVmTime	Total Debt
24	865870.49		21.65
VM_ID	TotVmTime	Total Debt
25	1721541.09		43.04
VM_ID	TotVmTime	Total Debt
26	880737.87		22.02
VM_ID	TotVmTime	Total Debt
27	1065526.76		26.64
VM_ID	TotVmTime	Total Debt
28	1396279.24		34.91
VM_ID	TotVmTime	Total Debt
29	1680329.32		42.01
VM_ID	TotVmTime	Total Debt
30	2006639.47		50.17
VM_ID	TotVmTime	Total Debt
31	978020.6		24.45
VM_ID	TotVmTime	Total Debt
32	1094798.32		27.37
VM_ID	TotVmTime	Total Debt
33	758597.57		18.96
VM_ID	TotVmTime	Total Debt
34	1113406.57		27.84
VM_ID	TotVmTime	Total Debt
35	950051.21		23.75
VM_ID	TotVmTime	Total Debt
36	1612001.4		40.3
VM_ID	TotVmTime	Total Debt
37	841075.17		21.03
VM_ID	TotVmTime	Total Debt
38	529558.54		13.24
VM_ID	TotVmTime	Total Debt
39	1926536.8		48.16
VM_ID	TotVmTime	Total Debt
40	1349223.04		33.73
VM_ID	TotVmTime	Total Debt
41	1247714.81		31.19
VM_ID	TotVmTime	Total Debt
42	795877.35		19.9
VM_ID	TotVmTime	Total Debt
43	1570495.36		39.26
VM_ID	TotVmTime	Total Debt
44	942936.94		23.57
VM_ID	TotVmTime	Total Debt
45	447580.4		11.19
VM_ID	TotVmTime	Total Debt
46	742537.78		18.56
VM_ID	TotVmTime	Total Debt
47	1455185.88		36.38
VM_ID	TotVmTime	Total Debt
48	503072.77		12.58
VM_ID	TotVmTime	Total Debt
49	1217706.42		30.44
VM_ID	TotVmTime	Total Debt
50	1847943.01		46.2
VM_ID	TotVmTime	Total Debt
51	824537.89		20.61
VM_ID	TotVmTime	Total Debt
52	1058501.89		26.46
VM_ID	TotVmTime	Total Debt
53	1587313.87		39.68
VM_ID	TotVmTime	Total Debt
54	1682319.08		42.06
VM_ID	TotVmTime	Total Debt
55	721512.61		18.04
VM_ID	TotVmTime	Total Debt
56	1001627.42		25.04
VM_ID	TotVmTime	Total Debt
57	1799763.31		44.99
VM_ID	TotVmTime	Total Debt
58	398636.18		9.97
VM_ID	TotVmTime	Total Debt
59	1214557.99		30.36
VM_ID	TotVmTime	Total Debt
60	490229.73		12.26
VM_ID	TotVmTime	Total Debt
61	895177.51		22.38
VM_ID	TotVmTime	Total Debt
62	1302940.9		32.57
VM_ID	TotVmTime	Total Debt
63	915160.13		22.88
VM_ID	TotVmTime	Total Debt
64	1385264.55		34.63
VM_ID	TotVmTime	Total Debt
65	973428.2		24.34
VM_ID	TotVmTime	Total Debt
66	732717.57		18.32
VM_ID	TotVmTime	Total Debt
67	1444489.36		36.11
VM_ID	TotVmTime	Total Debt
68	786734.04		19.67
VM_ID	TotVmTime	Total Debt
69	422867.56		10.57
VM_ID	TotVmTime	Total Debt
70	895455.7		22.39
VM_ID	TotVmTime	Total Debt
71	2415574.57		60.39
VM_ID	TotVmTime	Total Debt
72	698746.1		17.47
VM_ID	TotVmTime	Total Debt
73	1733928.3		43.35
VM_ID	TotVmTime	Total Debt
74	1083408.73		27.09
VM_ID	TotVmTime	Total Debt
75	875813.7		21.9
VM_ID	TotVmTime	Total Debt
76	771813.72		19.3
VM_ID	TotVmTime	Total Debt
77	522688.62		13.07
VM_ID	TotVmTime	Total Debt
78	453015.95		11.33
VM_ID	TotVmTime	Total Debt
79	1155816.34		28.9
VM_ID	TotVmTime	Total Debt
80	914121.47		22.85
VM_ID	TotVmTime	Total Debt
81	322305.57		8.06
VM_ID	TotVmTime	Total Debt
82	1015279.24		25.38
VM_ID	TotVmTime	Total Debt
83	1117860.41		27.95
VM_ID	TotVmTime	Total Debt
84	1385325.74		34.63
VM_ID	TotVmTime	Total Debt
85	1574798.98		39.37
VM_ID	TotVmTime	Total Debt
86	970965.05		24.27
VM_ID	TotVmTime	Total Debt
87	1195339.56		29.88
VM_ID	TotVmTime	Total Debt
88	886400.34		22.16
VM_ID	TotVmTime	Total Debt
89	1265330.12		31.63
VM_ID	TotVmTime	Total Debt
90	1155169.89		28.88
VM_ID	TotVmTime	Total Debt
91	880152.75		22
VM_ID	TotVmTime	Total Debt
92	757729.34		18.94
VM_ID	TotVmTime	Total Debt
93	777915.86		19.45
VM_ID	TotVmTime	Total Debt
94	771979.59		19.3
VM_ID	TotVmTime	Total Debt
95	1316438.97		32.91
VM_ID	TotVmTime	Total Debt
96	1487509.28		37.19
VM_ID	TotVmTime	Total Debt
97	740955.81		18.52
VM_ID	TotVmTime	Total Debt
98	738727.47		18.47
VM_ID	TotVmTime	Total Debt
99	869747.95		21.74
VM_ID	TotVmTime	Total Debt
100	1110564.14		27.76
VM_ID	TotVmTime	Total Debt
101	912969.06		22.82
VM_ID	TotVmTime	Total Debt
102	1219120.81		30.48
VM_ID	TotVmTime	Total Debt
103	838295.03		20.96
VM_ID	TotVmTime	Total Debt
104	843005.3		21.08
VM_ID	TotVmTime	Total Debt
105	1620152.65		40.5
VM_ID	TotVmTime	Total Debt
106	1387652.68		34.69
VM_ID	TotVmTime	Total Debt
107	2005772.23		50.14
VM_ID	TotVmTime	Total Debt
108	1170291.2		29.26
VM_ID	TotVmTime	Total Debt
109	1749602.3		43.74
VM_ID	TotVmTime	Total Debt
110	1238322.24		30.96
VM_ID	TotVmTime	Total Debt
111	710854.81		17.77
VM_ID	TotVmTime	Total Debt
112	1608633.05		40.22
VM_ID	TotVmTime	Total Debt
113	1592153.33		39.8
VM_ID	TotVmTime	Total Debt
114	1224889.78		30.62
VM_ID	TotVmTime	Total Debt
115	956279.91		23.91
VM_ID	TotVmTime	Total Debt
116	1607307.15		40.18
VM_ID	TotVmTime	Total Debt
117	1440392.55		36.01
VM_ID	TotVmTime	Total Debt
118	887510.84		22.19
VM_ID	TotVmTime	Total Debt
119	2053753.22		51.34
VM_ID	TotVmTime	Total Debt
120	2356707.64		58.92
VM_ID	TotVmTime	Total Debt
121	1282917.82		32.07
VM_ID	TotVmTime	Total Debt
122	1460659.14		36.52
VM_ID	TotVmTime	Total Debt
123	1471737.49		36.79
VM_ID	TotVmTime	Total Debt
124	1139652.52		28.49
VM_ID	TotVmTime	Total Debt
125	1116316.6		27.91
VM_ID	TotVmTime	Total Debt
126	2104013.76		52.6
VM_ID	TotVmTime	Total Debt
127	1929101.7		48.23
VM_ID	TotVmTime	Total Debt
128	881519.96		22.04
VM_ID	TotVmTime	Total Debt
129	1393044.7		34.83
VM_ID	TotVmTime	Total Debt
130	1023090.9		25.58
VM_ID	TotVmTime	Total Debt
131	961158.18		24.03
VM_ID	TotVmTime	Total Debt
132	813688.81		20.34
VM_ID	TotVmTime	Total Debt
133	827787.68		20.69
VM_ID	TotVmTime	Total Debt
134	930912.92		23.27
VM_ID	TotVmTime	Total Debt
135	1437170.75		35.93
VM_ID	TotVmTime	Total Debt
136	1284413.57		32.11
VM_ID	TotVmTime	Total Debt
137	1685048.42		42.13
VM_ID	TotVmTime	Total Debt
138	1096102.63		27.4
VM_ID	TotVmTime	Total Debt
139	824277.48		20.61
VM_ID	TotVmTime	Total Debt
140	893903.35		22.35
VM_ID	TotVmTime	Total Debt
141	1202138.04		30.05
VM_ID	TotVmTime	Total Debt
142	1991864.76		49.8
VM_ID	TotVmTime	Total Debt
143	1047981.42		26.2
VM_ID	TotVmTime	Total Debt
144	1646931.92		41.17
VM_ID	TotVmTime	Total Debt
145	1018927.67		25.47
VM_ID	TotVmTime	Total Debt
146	2279689.05		56.99
VM_ID	TotVmTime	Total Debt
147	1637751.51		40.94
VM_ID	TotVmTime	Total Debt
148	2016232.03		50.41
VM_ID	TotVmTime	Total Debt
149	828038.52		20.7
VM_ID	TotVmTime	Total Debt
150	1319878.27		33
VM_ID	TotVmTime	Total Debt
151	1843022.12		46.08
VM_ID	TotVmTime	Total Debt
152	1074719.93		26.87
VM_ID	TotVmTime	Total Debt
153	964993.3		24.12
VM_ID	TotVmTime	Total Debt
154	1920575.44		48.01
VM_ID	TotVmTime	Total Debt
155	1047920.52		26.2
VM_ID	TotVmTime	Total Debt
156	1022643.19		25.57
VM_ID	TotVmTime	Total Debt
157	901811.83		22.55
VM_ID	TotVmTime	Total Debt
158	924822.55		23.12
VM_ID	TotVmTime	Total Debt
159	1413260.87		35.33
VM_ID	TotVmTime	Total Debt
160	1121137.8		28.03
VM_ID	TotVmTime	Total Debt
161	1313967.67		32.85
VM_ID	TotVmTime	Total Debt
162	754069.05		18.85
VM_ID	TotVmTime	Total Debt
163	1359833.82		34
VM_ID	TotVmTime	Total Debt
164	1250276.04		31.26
VM_ID	TotVmTime	Total Debt
165	1857798.5		46.44
VM_ID	TotVmTime	Total Debt
166	1055061.63		26.38
VM_ID	TotVmTime	Total Debt
167	2802979.9		70.07
VM_ID	TotVmTime	Total Debt
168	1554122.36		38.85
VM_ID	TotVmTime	Total Debt
169	1120538.21		28.01
VM_ID	TotVmTime	Total Debt
170	1477498.44		36.94
VM_ID	TotVmTime	Total Debt
171	1627956.79		40.7
VM_ID	TotVmTime	Total Debt
172	1025302.84		25.63
VM_ID	TotVmTime	Total Debt
173	1585566.39		39.64
VM_ID	TotVmTime	Total Debt
174	1458552.02		36.46
VM_ID	TotVmTime	Total Debt
175	2058742.17		51.47
VM_ID	TotVmTime	Total Debt
176	2389284.85		59.73
VM_ID	TotVmTime	Total Debt
177	1057296.56		26.43
VM_ID	TotVmTime	Total Debt
178	1350730.97		33.77
VM_ID	TotVmTime	Total Debt
179	1521800.27		38.05
VM_ID	TotVmTime	Total Debt
180	1052688.03		26.32
VM_ID	TotVmTime	Total Debt
181	884067.19		22.1
VM_ID	TotVmTime	Total Debt
182	948104.74		23.7
VM_ID	TotVmTime	Total Debt
183	2093799.57		52.34
VM_ID	TotVmTime	Total Debt
184	939987.69		23.5
VM_ID	TotVmTime	Total Debt
185	1574742.26		39.37
VM_ID	TotVmTime	Total Debt
186	1310635.08		32.77
VM_ID	TotVmTime	Total Debt
187	1467250.29		36.68
VM_ID	TotVmTime	Total Debt
188	1700588.4		42.51
VM_ID	TotVmTime	Total Debt
189	996880.92		24.92
VM_ID	TotVmTime	Total Debt
190	1878715.15		46.97
VM_ID	TotVmTime	Total Debt
191	1244539.26		31.11
VM_ID	TotVmTime	Total Debt
192	675774.77		16.89
VM_ID	TotVmTime	Total Debt
193	911469.38		22.79
VM_ID	TotVmTime	Total Debt
194	1664478.93		41.61
VM_ID	TotVmTime	Total Debt
195	2173997.54		54.35
VM_ID	TotVmTime	Total Debt
196	1762414.16		44.06
VM_ID	TotVmTime	Total Debt
197	2228306.61		55.71
VM_ID	TotVmTime	Total Debt
198	830872.74		20.77
VM_ID	TotVmTime	Total Debt
199	1093251.6		27.33
VM_ID	TotVmTime	Total Debt
200	0		0
VM_ID	TotVmTime	Total Debt
201	0		0
VM_ID	TotVmTime	Total Debt
202	0		0
VM_ID	TotVmTime	Total Debt
203	0		0
VM_ID	TotVmTime	Total Debt
204	0		0
VM_ID	TotVmTime	Total Debt
205	0		0
VM_ID	TotVmTime	Total Debt
206	0		0
VM_ID	TotVmTime	Total Debt
207	0		0
VM_ID	TotVmTime	Total Debt
208	0		0
VM_ID	TotVmTime	Total Debt
209	0		0
VM_ID	TotVmTime	Total Debt
210	0		0
VM_ID	TotVmTime	Total Debt
211	0		0
VM_ID	TotVmTime	Total Debt
212	0		0
VM_ID	TotVmTime	Total Debt
213	0		0
VM_ID	TotVmTime	Total Debt
214	0		0
VM_ID	TotVmTime	Total Debt
215	0		0
VM_ID	TotVmTime	Total Debt
216	0		0
VM_ID	TotVmTime	Total Debt
217	0		0
VM_ID	TotVmTime	Total Debt
218	0		0
VM_ID	TotVmTime	Total Debt
219	0		0
VM_ID	TotVmTime	Total Debt
220	0		0
VM_ID	TotVmTime	Total Debt
221	0		0
VM_ID	TotVmTime	Total Debt
222	0		0
VM_ID	TotVmTime	Total Debt
223	0		0
VM_ID	TotVmTime	Total Debt
224	0		0
VM_ID	TotVmTime	Total Debt
225	0		0
VM_ID	TotVmTime	Total Debt
226	0		0
VM_ID	TotVmTime	Total Debt
227	0		0
VM_ID	TotVmTime	Total Debt
228	0		0
VM_ID	TotVmTime	Total Debt
229	0		0
VM_ID	TotVmTime	Total Debt
230	0		0
VM_ID	TotVmTime	Total Debt
231	0		0
VM_ID	TotVmTime	Total Debt
232	0		0
VM_ID	TotVmTime	Total Debt
233	0		0
VM_ID	TotVmTime	Total Debt
234	0		0
VM_ID	TotVmTime	Total Debt
235	0		0
VM_ID	TotVmTime	Total Debt
236	0		0
VM_ID	TotVmTime	Total Debt
237	0		0
VM_ID	TotVmTime	Total Debt
238	0		0
VM_ID	TotVmTime	Total Debt
239	0		0
VM_ID	TotVmTime	Total Debt
240	0		0
VM_ID	TotVmTime	Total Debt
241	0		0
VM_ID	TotVmTime	Total Debt
242	0		0
VM_ID	TotVmTime	Total Debt
243	0		0
VM_ID	TotVmTime	Total Debt
244	0		0
VM_ID	TotVmTime	Total Debt
245	0		0
VM_ID	TotVmTime	Total Debt
246	0		0
VM_ID	TotVmTime	Total Debt
247	0		0
VM_ID	TotVmTime	Total Debt
248	0		0
VM_ID	TotVmTime	Total Debt
249	0		0
VM_ID	TotVmTime	Total Debt
250	0		0
VM_ID	TotVmTime	Total Debt
251	0		0
VM_ID	TotVmTime	Total Debt
252	0		0
VM_ID	TotVmTime	Total Debt
253	0		0
VM_ID	TotVmTime	Total Debt
254	0		0
VM_ID	TotVmTime	Total Debt
255	0		0
VM_ID	TotVmTime	Total Debt
256	0		0
VM_ID	TotVmTime	Total Debt
257	0		0
VM_ID	TotVmTime	Total Debt
258	0		0
VM_ID	TotVmTime	Total Debt
259	0		0
VM_ID	TotVmTime	Total Debt
260	0		0
VM_ID	TotVmTime	Total Debt
261	0		0
VM_ID	TotVmTime	Total Debt
262	0		0
VM_ID	TotVmTime	Total Debt
263	0		0
VM_ID	TotVmTime	Total Debt
264	0		0
VM_ID	TotVmTime	Total Debt
265	0		0
VM_ID	TotVmTime	Total Debt
266	0		0
VM_ID	TotVmTime	Total Debt
267	0		0
VM_ID	TotVmTime	Total Debt
268	0		0
VM_ID	TotVmTime	Total Debt
269	0		0
VM_ID	TotVmTime	Total Debt
270	0		0
VM_ID	TotVmTime	Total Debt
271	0		0
VM_ID	TotVmTime	Total Debt
272	0		0
VM_ID	TotVmTime	Total Debt
273	0		0
VM_ID	TotVmTime	Total Debt
274	0		0
VM_ID	TotVmTime	Total Debt
275	0		0
VM_ID	TotVmTime	Total Debt
276	0		0
VM_ID	TotVmTime	Total Debt
277	0		0
VM_ID	TotVmTime	Total Debt
278	0		0
VM_ID	TotVmTime	Total Debt
279	0		0
VM_ID	TotVmTime	Total Debt
280	0		0
VM_ID	TotVmTime	Total Debt
281	0		0
VM_ID	TotVmTime	Total Debt
282	0		0
VM_ID	TotVmTime	Total Debt
283	0		0
VM_ID	TotVmTime	Total Debt
284	0		0
VM_ID	TotVmTime	Total Debt
285	0		0
VM_ID	TotVmTime	Total Debt
286	0		0
VM_ID	TotVmTime	Total Debt
287	0		0
VM_ID	TotVmTime	Total Debt
288	0		0
VM_ID	TotVmTime	Total Debt
289	0		0
VM_ID	TotVmTime	Total Debt
290	0		0
VM_ID	TotVmTime	Total Debt
291	0		0
VM_ID	TotVmTime	Total Debt
292	0		0
VM_ID	TotVmTime	Total Debt
293	0		0
VM_ID	TotVmTime	Total Debt
294	0		0
VM_ID	TotVmTime	Total Debt
295	0		0
VM_ID	TotVmTime	Total Debt
296	0		0
VM_ID	TotVmTime	Total Debt
297	0		0
VM_ID	TotVmTime	Total Debt
298	0		0
VM_ID	TotVmTime	Total Debt
299	0		0
Tot Debt		P Debt		NP Debt		P-Marked Debt		NP-Marked Debt
6162.25			0		6162.25		0			6162.25
Tot Time		P Time		NP Time		P-Marked Time		NP-Marked Time
246490065.6		0		246490065.6		0			246490065.6
CloudSimExample finished!
